{"current_page":1,"data":[{"id":"1fc92f8a-bb9f-47c8-9808-aab9c82d6bf2","name":"Web Design Services","version":null,"description":"Expert web design that gives you peace of mind","productThumbnailUrl":"https:\/\/cdn.hiive.space\/products\/web-services-webdesign.jpg","primaryUrl":"https:\/\/www.web.com\/websites\/website-design-services","primaryCallToAction":"Learn More","secondaryUrl":"https://google.com","secondaryCallToAction":"Google Link","clickToBuyId":null,"type":"service","price":"0.00","vendor_id":null,"createdAt":"2022-06-28T20:11:35.000000Z","updatedAt":"2022-06-28T20:11:35.000000Z","categories":["Services","Featured"],"vendor":null,"price_formatted":"$0.00"},{"id":"2a1dadb5-f58d-4ae4-a26b-27efb09136eb","name":"Highend","version":null,"description":"The Ultimate WordPress Theme allows you to build stunning websites without any coding skills.","productThumbnailUrl":"https:\/\/marketplace-assets-production.s3-us-west-2.amazonaws.com\/vault\/items\/preview-5f1ab073-c768-4a90-9bdb-63370a14153a-HSGIn.png","primaryUrl":"https:\/\/www.mojomarketplace.com\/cart?item_id=5377b431-d8a8-431b-a711-50c10a141528","primaryCallToAction":"Buy Now","secondaryUrl":null,"secondaryCallToAction":null,"clickToBuyId":null,"type":"theme","price":"59.00","vendor_id":null,"createdAt":"2022-06-28T17:23:11.000000Z","updatedAt":"2022-06-28T17:38:12.000000Z","categories":["Theme","Featured"],"vendor":null,"price_formatted":"$59.00"},{"id":"386c6b45-4814-4d48-bba0-71e86a3f7c37","name":"Daisy","version":null,"description":"Daisy is the #1 blog theme on the marketplace!","productThumbnailUrl":"https:\/\/marketplace-assets-production.s3-us-west-2.amazonaws.com\/vault\/items\/preview-5ddd3b10-2e7c-4248-b740-0d300a14153b-B0mxt.jpg","primaryUrl":"https:\/\/www.mojomarketplace.com\/cart?item_id=55f82a3d-0ab8-49c6-a224-1a220a141f38&#038;utm_source=mojo_wp_plugin","primaryCallToAction":"Buy Now","secondaryUrl":null,"secondaryCallToAction":null,"clickToBuyId":null,"type":"theme","price":"59.00","vendor_id":null,"createdAt":"2022-06-28T19:24:01.000000Z","updatedAt":"2022-06-28T19:24:01.000000Z","categories":["Theme","Featured"],"vendor":null,"price_formatted":"$59.00"},{"id":"39f64e8b-8981-418d-807f-81c85947e2d9","name":"Atrium","version":null,"description":"This theme is beautifully designed, using the browser space entirely to make your website easy to read and focus.","productThumbnailUrl":"https:\/\/marketplace-assets-production.s3-us-west-2.amazonaws.com\/vault\/items\/preview-600ed234-12d0-41e3-a192-23020a141537-iqLpC.jpg","primaryUrl":"https:\/\/www.mojomarketplace.com\/cart?item_id=600ed234-47f8-4e2a-921f-23020a141537","primaryCallToAction":"Buy Now","secondaryUrl":null,"secondaryCallToAction":null,"clickToBuyId":null,"type":"plugin","price":"49.00","vendor_id":null,"createdAt":"2022-06-28T19:14:04.000000Z","updatedAt":"2022-06-28T19:14:04.000000Z","categories":["Theme","Featured"],"vendor":null,"price_formatted":"$49.00"},{"id":"4a1559ee-5e1e-445b-9d0e-1b13fc6f8d35","name":"Mike + Jane","version":null,"description":"Forget about complex frameworks and confusing required plugins - working with this theme is easy and fun!","productThumbnailUrl":"https:\/\/marketplace-assets-production.s3-us-west-2.amazonaws.com\/vault\/items\/preview-6072a76b-0bc4-407b-995a-3cdb0a141538-O5NNE.png","primaryUrl":"https:\/\/www.mojomarketplace.com\/cart?item_id=6072a76b-a7a8-412c-9c65-3cdb0a141538","primaryCallToAction":"Buy Now","secondaryUrl":null,"secondaryCallToAction":null,"clickToBuyId":null,"type":"plugin","price":"69.00","vendor_id":null,"createdAt":"2022-06-28T19:16:13.000000Z","updatedAt":"2022-06-28T19:16:36.000000Z","categories":["Theme","Featured"],"vendor":null,"price_formatted":"$69.00"},{"id":"4af0e54c-db4a-4a1b-a70e-e258fd49518e","name":"Yoast WooCommerce SEO","version":null,"description":"Make your products stand out in the search results","productThumbnailUrl":"https:\/\/cdn.hiive.space\/bluehost\/plugin\/yoast-seo-woo.png","primaryUrl":"https:\/\/yoa.st\/bh-woo-seo?utm_source=wp-admin%2Fadmin.php%3Fpage%3Dweb%23%2Fplugins&utm_medium=WEB_PLUGIN","primaryCallToAction":"Buy Now","secondaryUrl":null,"secondaryCallToAction":null,"clickToBuyId":null,"type":"plugin","price":"79.00","vendor_id":"03e93b44-9a95-400f-bc0b-f53c2bfa91cf","createdAt":"2022-06-28T21:12:22.000000Z","updatedAt":"2022-06-28T21:12:22.000000Z","categories":["eCommerce","SEO","Featured"],"vendor":{"name":"Yoast","url":"https:\/\/yoast.com\/"},"price_formatted":"$79.00"},{"id":"4f17bd36-4a10-4324-89ec-b0c0bf951c6b","name":"YITH WooCommerce Wishlist","version":null,"description":"Allow your customers to create lists of products they want and share them with family and friends.","productThumbnailUrl":"https:\/\/cdn.hiive.space\/products\/Yith%20Wishlist.png","primaryUrl":"https:\/\/yithemes.com\/themes\/plugins\/yith-woocommerce-wishlist\/","primaryCallToAction":"Buy Now","secondaryUrl":null,"secondaryCallToAction":null,"clickToBuyId":null,"type":"plugin","price":"94.99","vendor_id":"390d41f9-82a1-45e8-a1d9-6358e63388be","createdAt":"2022-06-21T22:02:25.000000Z","updatedAt":"2022-06-24T20:00:43.000000Z","categories":["eCommerce"],"vendor":{"name":"YITH","url":"https:\/\/yithemes.com\/"},"price_formatted":"$94.99"},{"id":"4ff38ef5-7798-40e1-b760-48af71f48def","name":"YITH WooCommerce Membership","version":null,"description":"Activate some sections of your e-commerce with restricted access so as to create memberships in your store.","productThumbnailUrl":"https:\/\/cdn.hiive.space\/products\/Yith%20Membership.png","primaryUrl":"https:\/\/yithemes.com\/themes\/plugins\/yith-woocommerce-membership\/","primaryCallToAction":"Buy Now","secondaryUrl":null,"secondaryCallToAction":null,"clickToBuyId":null,"type":"plugin","price":"149.99","vendor_id":"390d41f9-82a1-45e8-a1d9-6358e63388be","createdAt":"2022-06-21T22:00:37.000000Z","updatedAt":"2022-06-24T19:59:56.000000Z","categories":["eCommerce"],"vendor":{"name":"YITH","url":"https:\/\/yithemes.com\/"},"price_formatted":"$149.99"},{"id":"55dcf7e9-da24-4b7d-ba74-04de777025cb","name":"YITH Stripe Connect for WooCommerce","version":null,"description":"Manage complex transactions such as splitting payments both for a single product and for the whole store automatically.","productThumbnailUrl":"https:\/\/cdn.hiive.space\/products\/Yith%20Stripe%20Connect.png","primaryUrl":"https:\/\/yithemes.com\/themes\/plugins\/yith-woocommerce-stripe-connect\/","primaryCallToAction":"Buy Now","secondaryUrl":null,"secondaryCallToAction":null,"clickToBuyId":null,"type":"plugin","price":"79.99","vendor_id":"390d41f9-82a1-45e8-a1d9-6358e63388be","createdAt":"2022-06-21T22:07:49.000000Z","updatedAt":"2022-06-24T19:58:37.000000Z","categories":["eCommerce"],"vendor":{"name":"YITH","url":"https:\/\/yithemes.com\/"},"price_formatted":"$79.99"},{"id":"6d4aabce-bf5c-4c4b-8066-e7d01db2e49c","name":"PPC Advertising","version":null,"description":"Drive traffic with Pay-Per-Click Advertising","productThumbnailUrl":"https:\/\/cdn.hiive.space\/products\/web-services-ppc.jpg","primaryUrl":"https:\/\/www.web.com\/online-marketing\/pay-per-click-advertising","primaryCallToAction":"Learn More","secondaryUrl":null,"secondaryCallToAction":null,"clickToBuyId":null,"type":"service","price":"0.00","vendor_id":null,"createdAt":"2022-06-28T19:46:48.000000Z","updatedAt":"2022-06-28T20:13:32.000000Z","categories":["Services"],"vendor":null,"price_formatted":"$0.00"},{"id":"72463d0b-5c72-47e5-bd32-4ec225e53718","name":"Constant Contact Forms","version":null,"description":"Capture visitor information right from your site.","productThumbnailUrl":"https:\/\/marketplace-assets-production.s3-us-west-2.amazonaws.com\/vault\/items\/preview-57fc0ac0-d508-4ece-b096-041e0a14153b-4iVnr.jpg","primaryUrl":"https:\/\/www.mojomarketplace.com\/cart?item_id=57fc0ac0-d508-4ece-b096-041e0a14153b","primaryCallToAction":"Learn More","secondaryUrl":null,"secondaryCallToAction":null,"clickToBuyId":null,"type":"plugin","price":"0.00","vendor_id":null,"createdAt":"2022-06-28T21:10:29.000000Z","updatedAt":"2022-06-28T21:10:29.000000Z","categories":["Services"],"vendor":null,"price_formatted":"$0.00"},{"id":"7beee5ae-2e91-4282-9930-15ada43fc738","name":"Yoast Premium","version":null,"description":"SEO made easy! Get more visitors from Google, Bing and social media Increase your readers' engagement.","productThumbnailUrl":"https:\/\/cdn.hiive.space\/products\/Yoast%20PRO.png","primaryUrl":"https:\/\/yoa.st\/bh-premium?utm_source=wp-admin%2Fadmin.php%3Fpage%3Dbluehost%23%2Fmarketplace&utm_medium=bluehost_plugin","primaryCallToAction":"Buy Now","secondaryUrl":null,"secondaryCallToAction":null,"clickToBuyId":null,"type":"plugin","price":"99.00","vendor_id":"03e93b44-9a95-400f-bc0b-f53c2bfa91cf","createdAt":"2022-06-21T21:34:08.000000Z","updatedAt":"2022-06-24T20:00:57.000000Z","categories":["SEO"],"vendor":{"name":"Yoast","url":"https:\/\/yoast.com\/"},"price_formatted":"$99.00"},{"id":"7ca2be37-0a6a-44ff-94b6-cd9311d59ccb","name":"SEO Services","version":null,"description":"Increase your search ranking","productThumbnailUrl":"https:\/\/cdn.hiive.space\/products\/web-services-seo.jpg","primaryUrl":"https:\/\/www.web.com\/online-marketing\/small-business-seo-services","primaryCallToAction":"Learn More","secondaryUrl":null,"secondaryCallToAction":null,"clickToBuyId":null,"type":"service","price":"0.00","vendor_id":null,"createdAt":"2022-06-28T20:12:47.000000Z","updatedAt":"2022-06-28T20:12:47.000000Z","categories":["Services","SEO"],"vendor":null,"price_formatted":"$0.00"},{"id":"8efb0146-59ba-4d62-a9bd-90cdaa70be89","name":"Chia","version":null,"description":"Chia is a modern responsive WordPress theme ideal for creating a deli or cafe website as well as a food-based blog.","productThumbnailUrl":"https:\/\/marketplace-assets-production.s3-us-west-2.amazonaws.com\/vault\/items\/preview-60858bab-966c-4817-a7a9-59770a141536-IXbL7.jpg","primaryUrl":"https:\/\/www.mojomarketplace.com\/cart?item_id=60858bab-c640-409e-912a-59770a141536","primaryCallToAction":"Buy Now","secondaryUrl":null,"secondaryCallToAction":null,"clickToBuyId":null,"type":"plugin","price":"59.00","vendor_id":null,"createdAt":"2022-06-28T19:15:25.000000Z","updatedAt":"2022-06-28T19:15:25.000000Z","categories":["Theme"],"vendor":null,"price_formatted":"$59.00"},{"id":"9e851eb3-e511-4edc-aef9-939693c5a369","name":"YITH WooCommerce PDF Invoices & Packing Slips","version":null,"description":"The complete solution to automatically generate and manage your invoices and create packing slips to speed up your shipping process.","productThumbnailUrl":"https:\/\/cdn.hiive.space\/products\/Yith%20Invoice.png","primaryUrl":"https:\/\/yithemes.com\/themes\/plugins\/yith-woocommerce-pdf-invoice\/","primaryCallToAction":"Buy Now","secondaryUrl":null,"secondaryCallToAction":null,"clickToBuyId":null,"type":"plugin","price":"79.99","vendor_id":"390d41f9-82a1-45e8-a1d9-6358e63388be","createdAt":"2022-06-21T22:03:45.000000Z","updatedAt":"2022-06-24T20:00:29.000000Z","categories":["eCommerce"],"vendor":{"name":"YITH","url":"https:\/\/yithemes.com\/"},"price_formatted":"$79.99"},{"id":"dbd75129-e223-4ba7-bec3-6636ec6aa9e3","name":"YITH WooCommerce Multi Vendor \/ Marketplace","version":null,"description":"Turn your e-commerce into a marketplace with multiple vendors and start now to earn from their sales.","productThumbnailUrl":"https:\/\/cdn.hiive.space\/products\/Yith%20Vendors.png","primaryUrl":"https:\/\/yithemes.com\/themes\/plugins\/yith-woocommerce-multi-vendor\/","primaryCallToAction":"Buy Now","secondaryUrl":null,"secondaryCallToAction":null,"clickToBuyId":null,"type":"plugin","price":"99.99","vendor_id":"390d41f9-82a1-45e8-a1d9-6358e63388be","createdAt":"2022-06-21T22:06:34.000000Z","updatedAt":"2022-06-24T20:00:13.000000Z","categories":["eCommerce"],"vendor":{"name":"YITH","url":"https:\/\/yithemes.com\/"},"price_formatted":"$99.99"},{"id":"dfbae7db-1389-477e-80f1-b068109ae03e","name":"Pro Services","version":null,"description":"Custom websites and marketing done your way","productThumbnailUrl":"https:\/\/cdn.hiive.space\/products\/web-services-pro.jpg","primaryUrl":"https:\/\/www.web.com\/websites\/pro-website-services","primaryCallToAction":"Learn More","secondaryUrl":null,"secondaryCallToAction":null,"clickToBuyId":"xxx","type":"service","price":"0.00","vendor_id":null,"createdAt":"2022-06-28T20:10:17.000000Z","updatedAt":"2022-06-28T22:11:20.000000Z","categories":["Services"],"vendor":null,"price_formatted":"$0.00"},{"id":"eb286761-d1b7-47ec-8cbd-d8109e65cee9","name":"Creativo","version":null,"description":"Use Creativo to create pixel perfect websites without coding.","productThumbnailUrl":"https:\/\/marketplace-assets-production.s3-us-west-2.amazonaws.com\/vault\/items\/preview-5f58a759-a740-4706-a41d-71a90a14153a-9etrI.jpg","primaryUrl":"https:\/\/www.mojomarketplace.com\/cart?item_id=518048d9-ae08-4939-93ac-0a000a140b1e","primaryCallToAction":"Buy Now","secondaryUrl":null,"secondaryCallToAction":null,"clickToBuyId":null,"type":"theme","price":"59.00","vendor_id":null,"createdAt":"2022-06-28T17:30:45.000000Z","updatedAt":"2022-06-28T17:30:45.000000Z","categories":["Theme"],"vendor":null,"price_formatted":"$59.00"}],"first_page_url":"https:\/\/hiive.cloud\/api\/marketplace\/v1\/products?brand=web&per_page=18&page=1","from":1,"last_page":2,"last_page_url":"https:\/\/hiive.cloud\/api\/marketplace\/v1\/products?brand=web&per_page=18&page=2","links":[{"url":null,"label":"&laquo; Previous","active":false},{"url":"https:\/\/hiive.cloud\/api\/marketplace\/v1\/products?brand=web&per_page=18&page=1","label":"1","active":true},{"url":"https:\/\/hiive.cloud\/api\/marketplace\/v1\/products?brand=web&per_page=18&page=2","label":"2","active":false},{"url":"https:\/\/hiive.cloud\/api\/marketplace\/v1\/products?brand=web&per_page=18&page=2","label":"Next &raquo;","active":false}],"next_page_url":"https:\/\/hiive.cloud\/api\/marketplace\/v1\/products?brand=web&per_page=18&page=2","path":"https:\/\/hiive.cloud\/api\/marketplace\/v1\/products","per_page":"18","prev_page_url":null,"to":18,"total":19}
